drwxr-xr-x jason/jason       0 2001-05-02 14:19:41 phpweblog-0.5.2/
-rw-r--r-- jason/jason    1934 2001-04-30 14:28:17 phpweblog-0.5.2/archive.php
-rw-r--r-- jason/jason   37939 2001-05-02 12:57:41 phpweblog-0.5.2/HISTORY
-rw-r--r-- jason/jason    4032 2001-02-13 08:45:02 phpweblog-0.5.2/INSTALL
-rw-r--r-- jason/jason   14903 2001-02-13 08:45:02 phpweblog-0.5.2/LICENSE
-rw-r--r-- jason/jason    1426 2001-04-30 10:32:01 phpweblog-0.5.2/README
-rw-r--r-- jason/jason     617 2001-04-30 11:52:06 phpweblog-0.5.2/TODO
drwxr-xr-x jason/jason       0 2001-05-02 14:19:47 phpweblog-0.5.2/admin/
-rw-r--r-- jason/jason    2216 2001-02-13 08:45:02 phpweblog-0.5.2/admin/auth.inc.php
-rw-r--r-- jason/jason    7106 2001-04-30 14:30:57 phpweblog-0.5.2/admin/blocks.php
-rw-r--r-- jason/jason    5063 2001-04-30 14:31:23 phpweblog-0.5.2/admin/config-extend.php
-rw-r--r-- jason/jason    3610 2001-04-30 14:30:54 phpweblog-0.5.2/admin/config-site.php
-rw-r--r-- jason/jason    6801 2001-04-30 14:31:20 phpweblog-0.5.2/admin/config-story.php
-rw-r--r-- jason/jason   32841 2001-04-30 14:31:17 phpweblog-0.5.2/admin/edit.php
-rw-r--r-- jason/jason    1069 2001-04-30 14:30:07 phpweblog-0.5.2/admin/index.php
-rw-r--r-- jason/jason    5844 2001-04-30 14:30:45 phpweblog-0.5.2/admin/kill.php
-rw-r--r-- jason/jason    6794 2001-04-30 14:31:13 phpweblog-0.5.2/admin/layout.php
-rw-r--r-- jason/jason    1113 2001-02-13 08:45:02 phpweblog-0.5.2/admin/logout.php
-rw-r--r-- jason/jason    2020 2001-04-30 14:31:09 phpweblog-0.5.2/admin/logs.php
-rw-r--r-- jason/jason    2643 2001-04-30 14:30:26 phpweblog-0.5.2/admin/moderate.php
-rw-r--r-- jason/jason    5217 2001-04-30 14:31:06 phpweblog-0.5.2/admin/polls.php
-rw-r--r-- jason/jason    1343 2001-04-30 14:30:38 phpweblog-0.5.2/admin/repost.php
-rw-r--r-- jason/jason    8210 2001-04-30 14:31:04 phpweblog-0.5.2/admin/submit.php
-rw-r--r-- jason/jason    3541 2001-04-30 14:30:33 phpweblog-0.5.2/admin/topics.php
-rw-r--r-- jason/jason    1340 2001-04-30 14:31:00 phpweblog-0.5.2/admin/verify.php
-rw-r--r-- jason/jason    3772 2001-04-30 14:29:02 phpweblog-0.5.2/contrib.php
-rw-r--r-- jason/jason    7230 2001-02-13 08:45:02 phpweblog-0.5.2/formcheck.inc.js
-rw-r--r-- jason/jason    2686 2001-04-30 14:28:11 phpweblog-0.5.2/friend.php
lrwxrwxrwx jason/jason       0 2001-05-02 14:25:42 phpweblog-0.5.2/index.php -> stories.php
-rw-r--r-- jason/jason   16500 2001-04-30 14:44:50 phpweblog-0.5.2/links.php
-rw-r--r-- jason/jason    2041 2001-04-30 14:28:52 phpweblog-0.5.2/pages.php
-rw-r--r-- jason/jason    2228 2001-04-30 14:27:52 phpweblog-0.5.2/pollbooth.php
-rw-r--r-- jason/jason    1104 2001-04-30 14:28:44 phpweblog-0.5.2/portal.php
-rw-r--r-- jason/jason    4846 2001-04-30 14:27:31 phpweblog-0.5.2/preview.php
-rw-r--r-- jason/jason    1541 2001-04-30 14:28:42 phpweblog-0.5.2/print.php
-rw-r--r-- jason/jason    3119 2001-04-30 14:27:17 phpweblog-0.5.2/profiles.php
-rw-r--r-- jason/jason    1198 2001-04-30 14:28:37 phpweblog-0.5.2/search.php
-rw-r--r-- jason/jason    5703 2001-04-30 14:27:10 phpweblog-0.5.2/stats.php
-rw-r--r-- jason/jason    4504 2001-04-30 14:26:34 phpweblog-0.5.2/stories.php
-rw-r--r-- jason/jason    3133 2001-04-30 14:27:02 phpweblog-0.5.2/submit.php
-rw-r--r-- jason/jason    2013 2001-04-30 14:28:24 phpweblog-0.5.2/topics.php
drwxr-xr-x jason/jason       0 2001-05-02 14:19:52 phpweblog-0.5.2/backend/
-rw-r--r-- jason/jason     969 2001-02-13 08:45:03 phpweblog-0.5.2/backend/weblog.rdf
-rw-r--r-- jason/jason    1954 2001-02-13 08:45:03 phpweblog-0.5.2/backend/wap.php
drwxr-xr-x jason/jason       0 2001-05-02 09:25:10 phpweblog-0.5.2/backend/language/
drwxr-xr-x jason/jason       0 2001-05-02 12:58:29 phpweblog-0.5.2/backend/language/CVS/
-rw-r--r-- jason/jason      63 2001-04-25 21:51:28 phpweblog-0.5.2/backend/language/CVS/Root
-rw-r--r-- jason/jason      35 2001-04-25 21:51:28 phpweblog-0.5.2/backend/language/CVS/Repository
-rw-r--r-- jason/jason     551 2001-05-02 12:58:29 phpweblog-0.5.2/backend/language/CVS/Entries
-rw-r--r-- jason/jason    6355 2001-05-02 09:25:04 phpweblog-0.5.2/backend/language/faroese.lng
-rw-r--r-- jason/jason    5053 2001-03-15 19:50:51 phpweblog-0.5.2/backend/language/big5.lng
-rw-r--r-- jason/jason    6664 2001-05-02 12:56:51 phpweblog-0.5.2/backend/language/danish.lng
-rw-r--r-- jason/jason    6849 2001-02-13 08:45:03 phpweblog-0.5.2/backend/language/dutch.lng
-rw-r--r-- jason/jason    6332 2001-03-08 19:18:02 phpweblog-0.5.2/backend/language/english.lng
-rw-r--r-- jason/jason    6683 2001-02-13 08:45:04 phpweblog-0.5.2/backend/language/french.lng
-rw-r--r-- jason/jason    6610 2001-02-13 08:45:03 phpweblog-0.5.2/backend/language/german.lng
-rw-r--r-- jason/jason    6547 2001-02-13 08:45:04 phpweblog-0.5.2/backend/language/italian.lng
-rw-r--r-- jason/jason    6591 2001-03-15 19:50:51 phpweblog-0.5.2/backend/language/norwegian.lng
-rw-r--r-- jason/jason    6638 2001-02-13 08:45:03 phpweblog-0.5.2/backend/language/portuguese.lng
-rw-r--r-- jason/jason    6549 2001-02-13 08:45:03 phpweblog-0.5.2/backend/language/spanish.lng
-rw-r--r-- jason/jason    6725 2001-05-02 09:25:10 phpweblog-0.5.2/backend/language/turkish.lng
drwxr-xr-x jason/jason       0 2001-05-02 14:20:03 phpweblog-0.5.2/backend/layouts/
-rw-r--r-- jason/jason    1700 2001-05-02 14:13:38 phpweblog-0.5.2/backend/layouts/opensoul.xlay
-rw-r--r-- jason/jason    1689 2001-05-02 14:13:45 phpweblog-0.5.2/backend/layouts/ananda.xlay
-rw-r--r-- jason/jason    1698 2001-05-02 14:13:50 phpweblog-0.5.2/backend/layouts/blackbox.xlay
-rw-r--r-- jason/jason    1690 2001-05-02 14:13:55 phpweblog-0.5.2/backend/layouts/blogger.xlay
-rw-r--r-- jason/jason    1677 2001-05-02 14:14:01 phpweblog-0.5.2/backend/layouts/blurb.xlay
-rw-r--r-- jason/jason    1691 2001-05-02 14:14:07 phpweblog-0.5.2/backend/layouts/ewaddle.xlay
-rw-r--r-- jason/jason    1706 2001-05-02 14:14:15 phpweblog-0.5.2/backend/layouts/kuro5hin.xlay
-rw-r--r-- jason/jason    1692 2001-05-02 14:14:24 phpweblog-0.5.2/backend/layouts/moronic.xlay
-rw-r--r-- jason/jason    1719 2001-05-02 14:14:29 phpweblog-0.5.2/backend/layouts/newsforge.xlay
-rw-r--r-- jason/jason    1694 2001-05-02 14:14:38 phpweblog-0.5.2/backend/layouts/papered.xlay
-rw-r--r-- jason/jason    1696 2001-05-02 14:14:42 phpweblog-0.5.2/backend/layouts/shanked.xlay
-rw-r--r-- jason/jason    1677 2001-05-02 14:14:52 phpweblog-0.5.2/backend/layouts/slash.xlay
-rw-r--r-- jason/jason    1675 2001-05-02 14:14:59 phpweblog-0.5.2/backend/layouts/t.o.xlay
-rw-r--r-- jason/jason    1698 2001-05-02 14:15:06 phpweblog-0.5.2/backend/layouts/tainted.xlay
-rw-r--r-- jason/jason    1700 2001-05-02 14:15:14 phpweblog-0.5.2/backend/layouts/xwindow.xlay
-rw-r--r-- jason/jason    1686 2001-05-02 14:16:19 phpweblog-0.5.2/backend/layouts/0ri0n.xlay
-rw-r--r-- jason/jason    1703 2001-05-02 14:16:29 phpweblog-0.5.2/backend/layouts/dotvoid.xlay
-rw-r--r-- jason/jason    1726 2001-05-02 14:16:36 phpweblog-0.5.2/backend/layouts/freshmeat.xlay
-rw-r--r-- jason/jason    1712 2001-05-02 14:16:42 phpweblog-0.5.2/backend/layouts/geekforum.xlay
-rw-r--r-- jason/jason    1670 2001-05-02 14:16:48 phpweblog-0.5.2/backend/layouts/gray.xlay
-rw-r--r-- jason/jason    1699 2001-05-02 14:16:54 phpweblog-0.5.2/backend/layouts/mergus.xlay
-rw-r--r-- jason/jason    1722 2001-05-02 14:17:00 phpweblog-0.5.2/backend/layouts/osdn.xlay
-rw-r--r-- jason/jason    1698 2001-05-02 14:17:08 phpweblog-0.5.2/backend/layouts/silver.xlay
drwxr-xr-x jason/jason       0 2001-05-02 14:19:55 phpweblog-0.5.2/backend/template/
drwxr-xr-x jason/jason       0 2001-05-02 14:20:09 phpweblog-0.5.2/backend/template/ananda/
drwxr-xr-x jason/jason       0 2001-05-02 14:22:15 phpweblog-0.5.2/backend/template/ananda/images/
-rwxr-xr-x jason/jason      60 2001-02-13 08:45:03 phpweblog-0.5.2/backend/template/ananda/images/bleft.gif
-rwxr-xr-x jason/jason     426 2001-02-13 08:45:03 phpweblog-0.5.2/backend/template/ananda/images/bot.gif
-rwxr-xr-x jason/jason     124 2001-02-13 08:45:03 phpweblog-0.5.2/backend/template/ananda/images/bottom.gif
-rwxr-xr-x jason/jason      71 2001-02-13 08:45:03 phpweblog-0.5.2/backend/template/ananda/images/bright.gif
-rwxr-xr-x jason/jason     111 2001-02-13 08:45:03 phpweblog-0.5.2/backend/template/ananda/images/left.gif
-rwxr-xr-x jason/jason     426 2001-02-13 08:45:03 phpweblog-0.5.2/backend/template/ananda/images/mbot.gif
-rwxr-xr-x jason/jason     171 2001-02-13 08:45:03 phpweblog-0.5.2/backend/template/ananda/images/mmid.gif
-rwxr-xr-x jason/jason     141 2001-02-13 08:45:03 phpweblog-0.5.2/backend/template/ananda/images/mtop.gif
-rwxr-xr-x jason/jason      77 2001-02-13 08:45:03 phpweblog-0.5.2/backend/template/ananda/images/right.gif
-rwxr-xr-x jason/jason      43 2001-02-13 08:45:03 phpweblog-0.5.2/backend/template/ananda/images/speck.gif
-rwxr-xr-x jason/jason     279 2001-02-13 08:45:03 phpweblog-0.5.2/backend/template/ananda/images/top.gif
-rwxr-xr-x jason/jason      77 2001-02-13 08:45:03 phpweblog-0.5.2/backend/template/ananda/images/topleft.gif
-rwxr-xr-x jason/jason      70 2001-02-13 08:45:03 phpweblog-0.5.2/backend/template/ananda/images/topright.gif
-rwxr-xr-x jason/jason    1260 2001-02-13 08:45:03 phpweblog-0.5.2/backend/template/ananda/block.tmpl
-rwxr-xr-x jason/jason     521 2001-02-13 08:45:03 phpweblog-0.5.2/backend/template/ananda/header.tmpl
-rwxr-xr-x jason/jason    1260 2001-02-13 08:45:03 phpweblog-0.5.2/backend/template/ananda/main.tmpl
-rwxr-xr-x jason/jason    1365 2001-02-13 08:45:03 phpweblog-0.5.2/backend/template/ananda/story.tmpl
-rwxr-xr-x jason/jason    1403 2001-02-13 08:45:03 phpweblog-0.5.2/backend/template/ananda/summary.tmpl
-rwxr-xr-x jason/jason     747 2001-02-13 08:45:03 phpweblog-0.5.2/backend/template/NOTES
drwxr-xr-x jason/jason       0 2001-05-02 14:22:56 phpweblog-0.5.2/backend/template/blackbox/
-rwxr-xr-x jason/jason     372 2001-02-13 08:45:03 phpweblog-0.5.2/backend/template/blackbox/block.tmpl
-rwxr-xr-x jason/jason     302 2001-02-13 08:45:03 phpweblog-0.5.2/backend/template/blackbox/header.tmpl
-rwxr-xr-x jason/jason     306 2001-02-13 08:45:03 phpweblog-0.5.2/backend/template/blackbox/main.tmpl
-rwxr-xr-x jason/jason     464 2001-02-13 08:45:03 phpweblog-0.5.2/backend/template/blackbox/story.tmpl
-rwxr-xr-x jason/jason     533 2001-02-13 08:45:03 phpweblog-0.5.2/backend/template/blackbox/summary.tmpl
drwxr-xr-x jason/jason       0 2001-05-02 14:22:56 phpweblog-0.5.2/backend/template/blogger/
-rwxr-xr-x jason/jason     194 2001-02-13 08:45:03 phpweblog-0.5.2/backend/template/blogger/block.tmpl
-rwxr-xr-x jason/jason     364 2001-04-27 13:54:00 phpweblog-0.5.2/backend/template/blogger/footer.tmpl
-rwxr-xr-x jason/jason     213 2001-02-13 08:45:03 phpweblog-0.5.2/backend/template/blogger/header.tmpl
-rwxr-xr-x jason/jason     128 2001-02-13 08:45:03 phpweblog-0.5.2/backend/template/blogger/main.tmpl
-rwxr-xr-x jason/jason     280 2001-02-13 08:45:03 phpweblog-0.5.2/backend/template/blogger/story.tmpl
-rwxr-xr-x jason/jason     363 2001-02-13 08:45:03 phpweblog-0.5.2/backend/template/blogger/summary.tmpl
drwxr-xr-x jason/jason       0 2001-05-02 14:22:56 phpweblog-0.5.2/backend/template/blurb/
drwxr-xr-x jason/jason       0 2001-05-02 14:23:03 phpweblog-0.5.2/backend/template/blurb/images/
-rwxr-xr-x jason/jason     132 2001-02-13 08:45:03 phpweblog-0.5.2/backend/template/blurb/images/comment.gif
-rwxr-xr-x jason/jason    1367 2001-02-13 08:45:03 phpweblog-0.5.2/backend/template/blurb/images/drop-bg.gif
-rwxr-xr-x jason/jason     505 2001-02-13 08:45:03 phpweblog-0.5.2/backend/template/blurb/block.tmpl
-rwxr-xr-x jason/jason     322 2001-02-13 08:45:03 phpweblog-0.5.2/backend/template/blurb/comment.tmpl
-rwxr-xr-x jason/jason     352 2001-04-27 13:54:14 phpweblog-0.5.2/backend/template/blurb/footer.tmpl
-rwxr-xr-x jason/jason     379 2001-02-13 08:45:03 phpweblog-0.5.2/backend/template/blurb/header.tmpl
-rwxr-xr-x jason/jason     456 2001-02-13 08:45:03 phpweblog-0.5.2/backend/template/blurb/main.tmpl
-rwxr-xr-x jason/jason     604 2001-02-13 08:45:03 phpweblog-0.5.2/backend/template/blurb/story.tmpl
-rwxr-xr-x jason/jason     670 2001-02-13 08:45:03 phpweblog-0.5.2/backend/template/blurb/summary.tmpl
drwxr-xr-x jason/jason       0 2001-05-02 14:22:56 phpweblog-0.5.2/backend/template/clean/
drwxr-xr-x jason/jason       0 2001-05-02 14:23:03 phpweblog-0.5.2/backend/template/clean/images/
-rwxr-xr-x jason/jason     132 2001-02-13 08:45:03 phpweblog-0.5.2/backend/template/clean/images/comment.gif
-rwxr-xr-x jason/jason     207 2001-02-13 08:45:03 phpweblog-0.5.2/backend/template/clean/comment.tmpl
-rwxr-xr-x jason/jason     351 2001-04-27 13:54:20 phpweblog-0.5.2/backend/template/clean/footer.tmpl
drwxr-xr-x jason/jason       0 2001-05-02 14:22:56 phpweblog-0.5.2/backend/template/ewaddle/
-rwxr-xr-x jason/jason     420 2001-02-13 08:45:03 phpweblog-0.5.2/backend/template/ewaddle/block.tmpl
-rwxr-xr-x jason/jason     293 2001-02-13 08:45:03 phpweblog-0.5.2/backend/template/ewaddle/header.tmpl
-rwxr-xr-x jason/jason     609 2001-02-13 08:45:03 phpweblog-0.5.2/backend/template/ewaddle/main.tmpl
-rwxr-xr-x jason/jason    1162 2001-02-13 08:45:03 phpweblog-0.5.2/backend/template/ewaddle/story.tmpl
-rwxr-xr-x jason/jason    1263 2001-02-13 08:45:03 phpweblog-0.5.2/backend/template/ewaddle/summary.tmpl
drwxr-xr-x jason/jason       0 2001-05-02 14:22:56 phpweblog-0.5.2/backend/template/kuro5hin/
-rwxr-xr-x jason/jason     453 2001-02-13 08:45:03 phpweblog-0.5.2/backend/template/kuro5hin/block.tmpl
-rwxr-xr-x jason/jason     376 2001-02-13 08:45:03 phpweblog-0.5.2/backend/template/kuro5hin/header.tmpl
-rwxr-xr-x jason/jason     432 2001-02-13 08:45:03 phpweblog-0.5.2/backend/template/kuro5hin/main.tmpl
-rwxr-xr-x jason/jason     520 2001-02-13 08:45:03 phpweblog-0.5.2/backend/template/kuro5hin/story.tmpl
-rwxr-xr-x jason/jason     598 2001-02-13 08:45:03 phpweblog-0.5.2/backend/template/kuro5hin/summary.tmpl
drwxr-xr-x jason/jason       0 2001-05-02 14:22:56 phpweblog-0.5.2/backend/template/moronic/
-rwxr-xr-x jason/jason     417 2001-02-13 08:45:03 phpweblog-0.5.2/backend/template/moronic/block.tmpl
-rwxr-xr-x jason/jason     314 2001-02-13 08:45:03 phpweblog-0.5.2/backend/template/moronic/header.tmpl
-rwxr-xr-x jason/jason     514 2001-02-13 08:45:03 phpweblog-0.5.2/backend/template/moronic/main.tmpl
-rwxr-xr-x jason/jason     616 2001-02-13 08:45:03 phpweblog-0.5.2/backend/template/moronic/story.tmpl
-rwxr-xr-x jason/jason    1335 2001-02-13 08:45:03 phpweblog-0.5.2/backend/template/moronic/summary.tmpl
drwxr-xr-x jason/jason       0 2001-05-02 14:22:56 phpweblog-0.5.2/backend/template/newsforge/
drwxr-xr-x jason/jason       0 2001-05-02 14:23:03 phpweblog-0.5.2/backend/template/newsforge/images/
-rwxr-xr-x jason/jason      43 2001-02-13 08:45:03 phpweblog-0.5.2/backend/template/newsforge/images/speck.gif
-rwxr-xr-x jason/jason     619 2001-02-13 08:45:03 phpweblog-0.5.2/backend/template/newsforge/block.tmpl
-rwxr-xr-x jason/jason    1000 2001-02-13 08:45:03 phpweblog-0.5.2/backend/template/newsforge/header.tmpl
-rwxr-xr-x jason/jason     622 2001-02-13 08:45:03 phpweblog-0.5.2/backend/template/newsforge/main.tmpl
-rwxr-xr-x jason/jason     426 2001-02-13 08:45:03 phpweblog-0.5.2/backend/template/newsforge/story.tmpl
-rwxr-xr-x jason/jason     543 2001-02-13 08:45:03 phpweblog-0.5.2/backend/template/newsforge/summary.tmpl
drwxr-xr-x jason/jason       0 2001-05-02 14:22:56 phpweblog-0.5.2/backend/template/papered/
drwxr-xr-x jason/jason       0 2001-05-02 14:23:03 phpweblog-0.5.2/backend/template/papered/images/
-rwxr-xr-x jason/jason      37 2001-02-13 08:45:03 phpweblog-0.5.2/backend/template/papered/images/square.gif
-rwxr-xr-x jason/jason     651 2001-02-13 08:45:03 phpweblog-0.5.2/backend/template/papered/block.tmpl
-rwxr-xr-x jason/jason     859 2001-02-13 08:45:03 phpweblog-0.5.2/backend/template/papered/header.tmpl
-rwxr-xr-x jason/jason     449 2001-02-13 08:45:03 phpweblog-0.5.2/backend/template/papered/main.tmpl
-rwxr-xr-x jason/jason     441 2001-02-13 08:45:03 phpweblog-0.5.2/backend/template/papered/story.tmpl
-rwxr-xr-x jason/jason     518 2001-02-13 08:45:03 phpweblog-0.5.2/backend/template/papered/summary.tmpl
drwxr-xr-x jason/jason       0 2001-05-02 14:22:56 phpweblog-0.5.2/backend/template/shanked/
drwxr-xr-x jason/jason       0 2001-05-02 14:23:03 phpweblog-0.5.2/backend/template/shanked/images/
-rwxr-xr-x jason/jason     142 2001-02-13 08:45:03 phpweblog-0.5.2/backend/template/shanked/images/bl_img.gif
-rwxr-xr-x jason/jason      64 2001-02-13 08:45:03 phpweblog-0.5.2/backend/template/shanked/images/br_img.gif
-rwxr-xr-x jason/jason      44 2001-02-13 08:45:03 phpweblog-0.5.2/backend/template/shanked/images/shadow.gif
-rwxr-xr-x jason/jason      43 2001-02-13 08:45:03 phpweblog-0.5.2/backend/template/shanked/images/speck.gif
-rwxr-xr-x jason/jason     106 2001-02-13 08:45:03 phpweblog-0.5.2/backend/template/shanked/images/tl_img.gif
-rwxr-xr-x jason/jason     107 2001-02-13 08:45:03 phpweblog-0.5.2/backend/template/shanked/images/tr_img.gif
-rwxr-xr-x jason/jason    1963 2001-02-13 08:45:03 phpweblog-0.5.2/backend/template/shanked/block.tmpl
-rwxr-xr-x jason/jason     501 2001-02-13 08:45:03 phpweblog-0.5.2/backend/template/shanked/header.tmpl
-rwxr-xr-x jason/jason     792 2001-02-13 08:45:03 phpweblog-0.5.2/backend/template/shanked/main.tmpl
-rwxr-xr-x jason/jason     900 2001-02-13 08:45:03 phpweblog-0.5.2/backend/template/shanked/story.tmpl
-rwxr-xr-x jason/jason     965 2001-02-13 08:45:03 phpweblog-0.5.2/backend/template/shanked/summary.tmpl
drwxr-xr-x jason/jason       0 2001-05-02 14:22:56 phpweblog-0.5.2/backend/template/slash/
drwxr-xr-x jason/jason       0 2001-05-02 14:23:03 phpweblog-0.5.2/backend/template/slash/images/
-rwxr-xr-x jason/jason      67 2001-02-13 08:45:03 phpweblog-0.5.2/backend/template/slash/images/cl.gif
-rwxr-xr-x jason/jason      67 2001-02-13 08:45:03 phpweblog-0.5.2/backend/template/slash/images/cr.gif
-rwxr-xr-x jason/jason      56 2001-02-13 08:45:03 phpweblog-0.5.2/backend/template/slash/images/gl.gif
-rwxr-xr-x jason/jason      56 2001-02-13 08:45:03 phpweblog-0.5.2/backend/template/slash/images/gr.gif
-rwxr-xr-x jason/jason      43 2001-02-13 08:45:03 phpweblog-0.5.2/backend/template/slash/images/pix.gif
-rwxr-xr-x jason/jason      46 2001-02-13 08:45:03 phpweblog-0.5.2/backend/template/slash/images/sl.gif
-rwxr-xr-x jason/jason      46 2001-02-13 08:45:03 phpweblog-0.5.2/backend/template/slash/images/sr.gif
-rwxr-xr-x jason/jason      56 2001-02-13 08:45:03 phpweblog-0.5.2/backend/template/slash/images/wl.gif
-rwxr-xr-x jason/jason      56 2001-02-13 08:45:03 phpweblog-0.5.2/backend/template/slash/images/wr.gif
-rwxr-xr-x jason/jason      68 2001-02-13 08:45:03 phpweblog-0.5.2/backend/template/slash/images/wl_cccccc.gif
-rwxr-xr-x jason/jason      68 2001-02-13 08:45:03 phpweblog-0.5.2/backend/template/slash/images/wr_cccccc.gif
-rwxr-xr-x jason/jason    1281 2001-02-13 08:45:03 phpweblog-0.5.2/backend/template/slash/block.tmpl
-rwxr-xr-x jason/jason    1259 2001-02-13 08:45:03 phpweblog-0.5.2/backend/template/slash/comment.tmpl
-rwxr-xr-x jason/jason     476 2001-02-13 08:45:03 phpweblog-0.5.2/backend/template/slash/header.tmpl
-rwxr-xr-x jason/jason    1294 2001-02-13 08:45:03 phpweblog-0.5.2/backend/template/slash/main.tmpl
-rwxr-xr-x jason/jason    1773 2001-02-13 08:45:03 phpweblog-0.5.2/backend/template/slash/story.tmpl
-rwxr-xr-x jason/jason    2487 2001-02-13 08:45:03 phpweblog-0.5.2/backend/template/slash/summary.tmpl
drwxr-xr-x jason/jason       0 2001-05-02 14:22:56 phpweblog-0.5.2/backend/template/t.o/
-rwxr-xr-x jason/jason     437 2001-03-04 15:44:21 phpweblog-0.5.2/backend/template/t.o/block.tmpl
-rwxr-xr-x jason/jason     404 2001-03-04 15:44:21 phpweblog-0.5.2/backend/template/t.o/header.tmpl
-rwxr-xr-x jason/jason     465 2001-03-04 15:44:21 phpweblog-0.5.2/backend/template/t.o/main.tmpl
-rwxr-xr-x jason/jason     696 2001-03-06 19:36:25 phpweblog-0.5.2/backend/template/t.o/story.tmpl
-rwxr-xr-x jason/jason     793 2001-03-06 19:36:25 phpweblog-0.5.2/backend/template/t.o/summary.tmpl
drwxr-xr-x jason/jason       0 2001-05-02 14:22:56 phpweblog-0.5.2/backend/template/tainted/
drwxr-xr-x jason/jason       0 2001-05-02 14:23:03 phpweblog-0.5.2/backend/template/tainted/images/
-rwxr-xr-x jason/jason     123 2001-02-13 08:45:03 phpweblog-0.5.2/backend/template/tainted/images/brownbg.gif
-rwxr-xr-x jason/jason      77 2001-02-13 08:45:03 phpweblog-0.5.2/backend/template/tainted/images/bg.gif
-rwxr-xr-x jason/jason     125 2001-02-13 08:45:03 phpweblog-0.5.2/backend/template/tainted/images/bottombarbg.gif
-rwxr-xr-x jason/jason      85 2001-02-13 08:45:03 phpweblog-0.5.2/backend/template/tainted/images/graybg.gif
-rwxr-xr-x jason/jason     550 2001-02-13 08:45:03 phpweblog-0.5.2/backend/template/tainted/images/left.gif
-rwxr-xr-x jason/jason    1070 2001-02-13 08:45:03 phpweblog-0.5.2/backend/template/tainted/images/right.gif
-rwxr-xr-x jason/jason     435 2001-05-01 20:22:50 phpweblog-0.5.2/backend/template/tainted/block.tmpl
-rwxr-xr-x jason/jason     304 2001-02-13 08:45:03 phpweblog-0.5.2/backend/template/tainted/footer.tmpl
-rwxr-xr-x jason/jason     706 2001-02-13 08:45:03 phpweblog-0.5.2/backend/template/tainted/header.tmpl
-rwxr-xr-x jason/jason     480 2001-05-01 20:23:36 phpweblog-0.5.2/backend/template/tainted/main.tmpl
-rwxr-xr-x jason/jason     589 2001-02-13 08:45:03 phpweblog-0.5.2/backend/template/tainted/story.tmpl
-rwxr-xr-x jason/jason     663 2001-02-13 08:45:03 phpweblog-0.5.2/backend/template/tainted/summary.tmpl
drwxr-xr-x jason/jason       0 2001-05-02 14:22:56 phpweblog-0.5.2/backend/template/xwindow/
drwxr-xr-x jason/jason       0 2001-05-02 14:23:03 phpweblog-0.5.2/backend/template/xwindow/images/
-rwxr-xr-x jason/jason     437 2001-02-13 08:45:03 phpweblog-0.5.2/backend/template/xwindow/images/bbd2.gif
-rwxr-xr-x jason/jason     661 2001-02-13 08:45:03 phpweblog-0.5.2/backend/template/xwindow/images/bbg2.gif
-rwxr-xr-x jason/jason      67 2001-02-13 08:45:03 phpweblog-0.5.2/backend/template/xwindow/images/bd.gif
-rwxr-xr-x jason/jason      65 2001-02-13 08:45:03 phpweblog-0.5.2/backend/template/xwindow/images/bg.gif
-rwxr-xr-x jason/jason      92 2001-02-13 08:45:03 phpweblog-0.5.2/backend/template/xwindow/images/bgb.gif
-rwxr-xr-x jason/jason     314 2001-02-13 08:45:03 phpweblog-0.5.2/backend/template/xwindow/images/bgb2.gif
-rwxr-xr-x jason/jason     171 2001-02-13 08:45:03 phpweblog-0.5.2/backend/template/xwindow/images/bgh.gif
-rwxr-xr-x jason/jason     272 2001-02-13 08:45:03 phpweblog-0.5.2/backend/template/xwindow/images/cbd.gif
-rwxr-xr-x jason/jason     298 2001-02-13 08:45:03 phpweblog-0.5.2/backend/template/xwindow/images/cbg.gif
-rwxr-xr-x jason/jason     800 2001-02-13 08:45:03 phpweblog-0.5.2/backend/template/xwindow/images/chd.gif
-rwxr-xr-x jason/jason    1082 2001-02-13 08:45:03 phpweblog-0.5.2/backend/template/xwindow/images/chg.gif
-rwxr-xr-x jason/jason    4961 2001-02-13 08:45:03 phpweblog-0.5.2/backend/template/xwindow/images/logo.gif
-rwxr-xr-x jason/jason      43 2001-02-13 08:45:03 phpweblog-0.5.2/backend/template/xwindow/images/speck.gif
-rwxr-xr-x jason/jason    1455 2001-02-13 08:45:03 phpweblog-0.5.2/backend/template/xwindow/block.tmpl
-rwxr-xr-x jason/jason    1259 2001-02-13 08:45:03 phpweblog-0.5.2/backend/template/xwindow/comment.tmpl
-rwxr-xr-x jason/jason     413 2001-04-08 22:33:02 phpweblog-0.5.2/backend/template/xwindow/header.tmpl
-rwxr-xr-x jason/jason    1452 2001-02-13 08:45:03 phpweblog-0.5.2/backend/template/xwindow/main.tmpl
-rwxr-xr-x jason/jason    1971 2001-02-13 08:45:03 phpweblog-0.5.2/backend/template/xwindow/story.tmpl
-rwxr-xr-x jason/jason    2040 2001-02-13 08:45:03 phpweblog-0.5.2/backend/template/xwindow/summary.tmpl
drwxr-xr-x jason/jason       0 2001-05-02 14:22:56 phpweblog-0.5.2/backend/template/opensoul/
-rwxr-xr-x jason/jason     766 2001-04-25 23:09:40 phpweblog-0.5.2/backend/template/opensoul/header.tmpl
drwxr-xr-x jason/jason       0 2001-05-02 14:23:03 phpweblog-0.5.2/backend/template/opensoul/images/
-rwxr-xr-x jason/jason      44 2001-01-30 15:36:13 phpweblog-0.5.2/backend/template/opensoul/images/shadow.gif
-rwxr-xr-x jason/jason      49 2000-04-24 11:04:52 phpweblog-0.5.2/backend/template/opensoul/images/spacer.gif
-rwxr-xr-x jason/jason     857 2001-04-25 23:02:55 phpweblog-0.5.2/backend/template/opensoul/footer.tmpl
-rwxr-xr-x jason/jason     394 2001-04-26 11:50:26 phpweblog-0.5.2/backend/template/opensoul/block.tmpl
-rwxr-xr-x jason/jason     255 2001-04-25 23:00:40 phpweblog-0.5.2/backend/template/opensoul/story.tmpl
-rwxr-xr-x jason/jason     248 2001-04-25 23:00:15 phpweblog-0.5.2/backend/template/opensoul/summary.tmpl
-rwxr-xr-x jason/jason     165 2001-04-25 23:02:16 phpweblog-0.5.2/backend/template/opensoul/main.tmpl
drwxr-xr-x jason/jason       0 2001-05-02 14:22:03 phpweblog-0.5.2/backend/template/0ri0n/
-rwxr-xr-x jason/jason     368 2001-03-21 06:05:41 phpweblog-0.5.2/backend/template/0ri0n/block.tmpl
drwxr-xr-x jason/jason       0 2001-05-02 14:22:06 phpweblog-0.5.2/backend/template/0ri0n/images/
-rwxr-xr-x jason/jason    1090 2000-11-13 14:07:00 phpweblog-0.5.2/backend/template/0ri0n/images/barra.gif
-rwxr-xr-x jason/jason     346 2001-03-21 06:22:26 phpweblog-0.5.2/backend/template/0ri0n/main.tmpl
-rwxr-xr-x jason/jason     288 2001-03-21 06:28:16 phpweblog-0.5.2/backend/template/0ri0n/header.tmpl
-rwxr-xr-x jason/jason     400 2001-04-27 11:18:14 phpweblog-0.5.2/backend/template/0ri0n/footer.tmpl
-rwxr-xr-x jason/jason     475 2001-04-27 12:06:41 phpweblog-0.5.2/backend/template/0ri0n/summary.tmpl
-rwxr-xr-x jason/jason     368 2001-04-27 12:07:17 phpweblog-0.5.2/backend/template/0ri0n/story.tmpl
-rwxr-xr-x jason/jason     403 2001-04-27 12:01:50 phpweblog-0.5.2/backend/template/0ri0n/comment.tmpl
drwxr-xr-x jason/jason       0 2001-05-02 14:22:56 phpweblog-0.5.2/backend/template/dotvoid/
-rw-r--r-- jason/jason    2739 2001-04-30 22:33:12 phpweblog-0.5.2/backend/template/dotvoid/header.tmpl
drwxr-xr-x jason/jason       0 2001-05-02 14:23:03 phpweblog-0.5.2/backend/template/dotvoid/images/
-rwxr-xr-x jason/jason      43 2001-04-30 21:24:33 phpweblog-0.5.2/backend/template/dotvoid/images/speck.gif
-rw-r--r-- jason/jason    1305 2001-04-30 21:51:58 phpweblog-0.5.2/backend/template/dotvoid/block.tmpl
-rw-r--r-- jason/jason    1305 2001-04-30 21:52:08 phpweblog-0.5.2/backend/template/dotvoid/main.tmpl
-rw-r--r-- jason/jason     465 2001-04-30 22:11:46 phpweblog-0.5.2/backend/template/dotvoid/summary.tmpl
-rw-r--r-- jason/jason     468 2001-04-30 22:12:29 phpweblog-0.5.2/backend/template/dotvoid/story.tmpl
drwxr-xr-x jason/jason       0 2001-05-02 14:22:56 phpweblog-0.5.2/backend/template/freshmeat/
drwxr-xr-x jason/jason       0 2001-05-02 14:23:03 phpweblog-0.5.2/backend/template/freshmeat/images/
-rwxr-xr-x jason/jason    1362 2001-03-20 09:27:23 phpweblog-0.5.2/backend/template/freshmeat/images/fmII-button.gif
-rwxr-xr-x jason/jason     574 2001-04-27 12:02:59 phpweblog-0.5.2/backend/template/freshmeat/summary.tmpl
-rwxr-xr-x jason/jason     315 2001-03-20 09:46:21 phpweblog-0.5.2/backend/template/freshmeat/block.tmpl
-rwxr-xr-x jason/jason     991 2001-03-29 13:18:23 phpweblog-0.5.2/backend/template/freshmeat/header.tmpl
-rwxr-xr-x jason/jason     325 2001-04-29 00:44:10 phpweblog-0.5.2/backend/template/freshmeat/footer.tmpl
-rwxr-xr-x jason/jason     492 2001-04-27 12:04:19 phpweblog-0.5.2/backend/template/freshmeat/story.tmpl
-rwxr-xr-x jason/jason     293 2001-04-27 12:05:41 phpweblog-0.5.2/backend/template/freshmeat/main.tmpl
drwxr-xr-x jason/jason       0 2001-05-02 14:22:56 phpweblog-0.5.2/backend/template/geekforum/
-rwxr-xr-x jason/jason     264 2001-03-10 13:00:28 phpweblog-0.5.2/backend/template/geekforum/block.tmpl
-rwxr-xr-x jason/jason     193 2001-03-05 17:29:55 phpweblog-0.5.2/backend/template/geekforum/main.tmpl
-rwxr-xr-x jason/jason     218 2001-03-10 07:21:04 phpweblog-0.5.2/backend/template/geekforum/header.tmpl
-rwxr-xr-x jason/jason     424 2001-04-27 12:07:59 phpweblog-0.5.2/backend/template/geekforum/summary.tmpl
-rwxr-xr-x jason/jason     342 2001-04-27 12:10:09 phpweblog-0.5.2/backend/template/geekforum/story.tmpl
-rwxr-xr-x jason/jason     331 2001-04-27 12:08:20 phpweblog-0.5.2/backend/template/geekforum/comment.tmpl
drwxr-xr-x jason/jason       0 2001-05-02 14:22:56 phpweblog-0.5.2/backend/template/gray/
-rwxr-xr-x jason/jason     288 2001-03-13 06:08:29 phpweblog-0.5.2/backend/template/gray/header.tmpl
-rwxr-xr-x jason/jason     190 2001-03-13 08:23:39 phpweblog-0.5.2/backend/template/gray/block.tmpl
-rwxr-xr-x jason/jason     341 2001-04-27 12:11:03 phpweblog-0.5.2/backend/template/gray/summary.tmpl
-rwxr-xr-x jason/jason     157 2001-03-13 06:14:56 phpweblog-0.5.2/backend/template/gray/main.tmpl
-rwxr-xr-x jason/jason     230 2001-04-27 12:12:25 phpweblog-0.5.2/backend/template/gray/story.tmpl
-rwxr-xr-x jason/jason     272 2001-04-27 12:12:50 phpweblog-0.5.2/backend/template/gray/comment.tmpl
drwxr-xr-x jason/jason       0 2001-05-02 14:22:56 phpweblog-0.5.2/backend/template/mergus/
-rwxr-xr-x jason/jason     694 2001-04-15 14:45:22 phpweblog-0.5.2/backend/template/mergus/block.tmpl
-rwxr-xr-x jason/jason     879 2001-04-27 12:14:51 phpweblog-0.5.2/backend/template/mergus/comment.tmpl
-rwxr-xr-x jason/jason     869 2001-04-27 11:55:14 phpweblog-0.5.2/backend/template/mergus/footer.tmpl
-rwxr-xr-x jason/jason     470 2001-04-15 16:13:31 phpweblog-0.5.2/backend/template/mergus/header.tmpl
-rwxr-xr-x jason/jason     671 2001-04-27 12:15:27 phpweblog-0.5.2/backend/template/mergus/main.tmpl
-rwxr-xr-x jason/jason     539 2001-04-27 12:14:05 phpweblog-0.5.2/backend/template/mergus/story.tmpl
-rwxr-xr-x jason/jason     555 2001-04-27 12:14:25 phpweblog-0.5.2/backend/template/mergus/summary.tmpl
drwxr-xr-x jason/jason       0 2001-05-02 14:22:56 phpweblog-0.5.2/backend/template/osdn/
drwxr-xr-x jason/jason       0 2001-05-02 14:23:03 phpweblog-0.5.2/backend/template/osdn/images/
-rwxr-xr-x jason/jason     385 2001-03-26 16:33:29 phpweblog-0.5.2/backend/template/osdn/images/bg.gif
-rwxr-xr-x jason/jason     201 2001-03-26 17:00:19 phpweblog-0.5.2/backend/template/osdn/images/slant.gif
-rwxr-xr-x jason/jason     363 2001-03-26 16:11:36 phpweblog-0.5.2/backend/template/osdn/block.tmpl
-rwxr-xr-x jason/jason    2349 2001-04-29 00:43:32 phpweblog-0.5.2/backend/template/osdn/footer.tmpl
-rwxr-xr-x jason/jason    1770 2001-04-27 11:57:14 phpweblog-0.5.2/backend/template/osdn/header.tmpl
-rwxr-xr-x jason/jason     318 2001-04-17 07:09:46 phpweblog-0.5.2/backend/template/osdn/main.tmpl
-rwxr-xr-x jason/jason     446 2001-04-27 12:16:32 phpweblog-0.5.2/backend/template/osdn/story.tmpl
-rwxr-xr-x jason/jason     591 2001-04-27 12:16:04 phpweblog-0.5.2/backend/template/osdn/summary.tmpl
drwxr-xr-x jason/jason       0 2001-05-02 14:22:56 phpweblog-0.5.2/backend/template/silver/
-rwxr-xr-x jason/jason     505 2001-03-13 05:23:37 phpweblog-0.5.2/backend/template/silver/header.tmpl
-rwxr-xr-x jason/jason     445 2001-03-13 05:16:24 phpweblog-0.5.2/backend/template/silver/block.tmpl
-rwxr-xr-x jason/jason     549 2001-04-27 12:18:02 phpweblog-0.5.2/backend/template/silver/summary.tmpl
-rwxr-xr-x jason/jason     405 2001-03-13 05:32:45 phpweblog-0.5.2/backend/template/silver/main.tmpl
-rwxr-xr-x jason/jason     506 2001-04-27 12:18:48 phpweblog-0.5.2/backend/template/silver/story.tmpl
drwxr-xr-x jason/jason       0 2001-05-02 14:23:03 phpweblog-0.5.2/backend/template/silver/images/
-rwxr-xr-x jason/jason   12179 2001-02-23 03:23:36 phpweblog-0.5.2/backend/template/silver/images/post_bg-dark.png
-rwxr-xr-x jason/jason   12108 2001-02-23 03:23:36 phpweblog-0.5.2/backend/template/silver/images/post_bg-light.png
-rwxr-xr-x jason/jason     480 2001-04-27 11:59:38 phpweblog-0.5.2/backend/template/silver/comment.tmpl
drwxr-xr-x jason/jason       0 2001-05-02 14:21:17 phpweblog-0.5.2/etc/
-rw-r--r-- jason/jason      49 2001-02-13 08:45:04 phpweblog-0.5.2/etc/.htaccess
-rw-r--r-- jason/jason    1127 2001-02-13 08:45:04 phpweblog-0.5.2/etc/0.2.3-0.2.4.sql
-rw-r--r-- jason/jason    2282 2001-02-13 08:45:04 phpweblog-0.5.2/etc/0.2.4-0.3.0.sql
-rw-r--r-- jason/jason    5924 2001-02-13 08:45:04 phpweblog-0.5.2/etc/0.3.0-0.4.0.sql
-rw-r--r-- jason/jason     219 2001-02-13 08:45:04 phpweblog-0.5.2/etc/0.4.0-0.4.1.sql
-rw-r--r-- jason/jason     131 2001-02-13 08:45:04 phpweblog-0.5.2/etc/0.4.1-0.4.2.sql
-rw-r--r-- jason/jason    2244 2001-02-13 08:45:04 phpweblog-0.5.2/etc/0.4.2-0.5.0.sql
-rw-r--r-- jason/jason     576 2001-02-13 08:45:04 phpweblog-0.5.2/etc/UPGRADING
-rw-r--r-- jason/jason    3872 2001-05-02 14:12:46 phpweblog-0.5.2/etc/data.sql
-rwxr-xr-x jason/jason     504 2001-04-26 12:06:19 phpweblog-0.5.2/etc/fix_permissions.sh
-rw-r--r-- jason/jason     781 2001-02-13 08:45:04 phpweblog-0.5.2/etc/htaccess.examples
-rw-r--r-- jason/jason       0 2001-02-13 08:45:04 phpweblog-0.5.2/etc/index.html
-rwxr-xr-x jason/jason     390 2001-02-13 08:45:04 phpweblog-0.5.2/etc/reset_passwd.sh
-rwxr-xr-x jason/jason    3086 2001-04-30 10:50:33 phpweblog-0.5.2/etc/setup.sh
-rw-r--r-- jason/jason    4939 2001-05-02 14:12:46 phpweblog-0.5.2/etc/tables.sql
-rw-r--r-- jason/jason     181 2001-05-02 14:40:05 phpweblog-0.5.2/etc/0.5.0-0.5.2.sql
drwxr-xr-x jason/jason       0 2001-05-02 14:20:33 phpweblog-0.5.2/images.d/
-rw-r--r-- jason/jason    2356 2001-02-13 08:45:04 phpweblog-0.5.2/images.d/announcements.gif
-rw-r--r-- jason/jason      36 2001-02-13 08:45:04 phpweblog-0.5.2/images.d/bar.gif
-rw-r--r-- jason/jason     132 2001-02-13 08:45:04 phpweblog-0.5.2/images.d/comment.gif
-rw-r--r-- jason/jason    2992 2001-02-13 08:45:04 phpweblog-0.5.2/images.d/development.gif
-rw-r--r-- jason/jason     252 2001-02-13 08:45:04 phpweblog-0.5.2/images.d/edit.gif
-rw-r--r-- jason/jason       0 2001-02-13 08:45:04 phpweblog-0.5.2/images.d/index.html
-rw-r--r-- jason/jason     224 2001-02-13 08:45:04 phpweblog-0.5.2/images.d/kill.gif
-rw-r--r-- jason/jason     141 2001-02-13 08:45:04 phpweblog-0.5.2/images.d/left.gif
-rw-r--r-- jason/jason    3581 2001-02-13 08:45:04 phpweblog-0.5.2/images.d/pwl.gif
-rw-r--r-- jason/jason    5058 2001-02-13 08:45:04 phpweblog-0.5.2/images.d/pwl.jpg
-rw-r--r-- jason/jason     255 2001-02-13 08:45:04 phpweblog-0.5.2/images.d/repost.gif
-rw-r--r-- jason/jason     124 2001-02-13 08:45:04 phpweblog-0.5.2/images.d/right.gif
-rw-r--r-- jason/jason      44 2001-02-13 08:45:04 phpweblog-0.5.2/images.d/shadow.gif
-rw-r--r-- jason/jason      43 2001-02-13 08:45:04 phpweblog-0.5.2/images.d/speck.gif
-rw-r--r-- jason/jason     183 2001-02-13 08:45:04 phpweblog-0.5.2/images.d/unok.gif
-rw-r--r-- jason/jason     227 2001-02-13 08:45:04 phpweblog-0.5.2/images.d/verify.gif
drwxr-xr-x jason/jason       0 2001-05-02 14:20:23 phpweblog-0.5.2/include/
-rw-r--r-- jason/jason   21685 2001-05-01 12:01:17 phpweblog-0.5.2/include/func.inc.php
-rw-r--r-- jason/jason    9763 2001-04-30 10:30:45 phpweblog-0.5.2/include/blocks.inc.php
-rw-r--r-- jason/jason    6395 2001-04-30 10:30:27 phpweblog-0.5.2/include/comments.inc.php
-rw-r--r-- jason/jason    3183 2001-05-02 14:23:56 phpweblog-0.5.2/include/common.inc.php
-rw-r--r-- jason/jason     164 2001-04-25 22:13:47 phpweblog-0.5.2/include/footer.inc.php
-rw-r--r-- jason/jason    2115 2001-05-02 14:16:06 phpweblog-0.5.2/include/header.inc.php
-rw-r--r-- jason/jason       0 2001-02-13 08:45:04 phpweblog-0.5.2/include/index.html
-rw-r--r-- jason/jason   14106 2001-04-30 10:30:36 phpweblog-0.5.2/include/layout.inc.php
-rw-r--r-- jason/jason    1898 2001-02-13 08:45:04 phpweblog-0.5.2/include/parser-syntax.txt
-rw-r--r-- jason/jason    4272 2001-04-30 10:30:19 phpweblog-0.5.2/include/parser.inc.php
-rw-r--r-- jason/jason    7544 2001-04-30 10:30:15 phpweblog-0.5.2/include/polls.inc.php
-rw-r--r-- jason/jason    9602 2001-04-30 10:30:31 phpweblog-0.5.2/include/search.inc.php
drwxr-xr-x jason/jason       0 2001-05-02 14:20:26 phpweblog-0.5.2/logs/
-rw-r--r-- jason/jason      49 2001-02-13 08:45:02 phpweblog-0.5.2/logs/.htaccess
-rw-r--r-- jason/jason       0 2001-05-02 14:18:24 phpweblog-0.5.2/logs/access.log
-rw-r--r-- jason/jason       0 2001-05-02 14:18:24 phpweblog-0.5.2/logs/error.log
-rw-r--r-- jason/jason       0 2001-02-13 08:45:02 phpweblog-0.5.2/logs/index.html
-rw-r--r-- jason/jason    1957 2001-04-28 20:57:08 phpweblog-0.5.2/API
